Demostración de la simulación –
…
gen1 <- setPheno(
  gen1,
  h2 = 0.28
  )

gen1@pheno <- gen1@pheno + 1000 # Se suma un valor de 1000 (media o intercepto) a todos los fenotipos después de haberlos simulado.

Valores fenotípicos en AlphaSimR

En AlphaSimR, los valores fenotípicos se calculan como la suma de dos componentes: los efectos aditivos de los QTLs y el efecto ambiental. A menos que se fije un intercepto (o valor medio del carácter), los valores fenotípicos simulados puedan incluir valores negativos si ambos efectos son lo suficientemente bajos.

Los valores fenotípicos de la población mejorada junto a su distribución (comparada con la población base) son:

# A tibble: 3,000 × 2
   ID    Fenotipos
   <chr>     <dbl>
 1 92178     1041.
 2 92179     1038.
 3 92180     1060.
 4 92181     1035.
 5 92182     1011.
 6 92183     1067.
 7 92184     1046.
 8 92185     1010.
 9 92186     1035.
10 92187     1001.
# ℹ 2,990 more rows
…
A continuación, se utiliza la función setPheno() de AlphaSimR para simular los valores fenotípicos:

gen1_blup <- setPheno(
  gen1_blup,
  h2 = 0.28
  )

gen1_blup@pheno <- gen1_blup@pheno + 1000

A continuación se presentan los valores fenotípicos de la población mejorada junto a su distribución (comparada con la población base):

# A tibble: 3,000 × 2
   ID    Fenotipos
   <chr>     <dbl>
 1 95178      947.
 2 95179      973.
 3 95180      906.
 4 95181     1004.
 5 95182      955.
 6 95183     1007.
 7 95184      921.
 8 95185      941.
 9 95186      994.
10 95187      919.
# ℹ 2,990 more rows
…
